﻿{
    "Territories": [
        {
            "ID": "109",
            "Name": "109",
            "Color": {
                "Red": 251,
                "Green": 128,
                "Blue": 114
            },
            "Text Color": {
                "Red": 176,
                "Green": 90,
                "Blue": 80
            },
            "Locked": false,
            "Label In Part": 0
        },
        {
            "ID": "169",
            "Name": "169",
            "Color": {
                "Red": 128,
                "Green": 177,
                "Blue": 211
            },
            "Text Color": {
                "Red": 90,
                "Green": 124,
                "Blue": 148
            },
            "Locked": false,
            "Label In Part": 0
        },
        {
            "ID": "105",
            "Name": "105",
            "Color": {
                "Red": 253,
                "Green": 180,
                "Blue": 98
            },
            "Text Color": {
                "Red": 177,
                "Green": 126,
                "Blue": 69
            },
            "Locked": false,
            "Label In Part": 0
        },
        {
            "ID": "101",
            "Name": "101",
            "Color": {
                "Red": 179,
                "Green": 222,
                "Blue": 105
            },
            "Text Color": {
                "Red": 125,
                "Green": 155,
                "Blue": 74
            },
            "Locked": false,
            "Label In Part": 0
        },
        {
            "ID": "106",
            "Name": "106",
            "Color": {
                "Red": 252,
                "Green": 205,
                "Blue": 229
            },
            "Text Color": {
                "Red": 176,
                "Green": 144,
                "Blue": 160
            },
            "Locked": false,
            "Label In Part": 0
        },
        {
            "ID": "108",
            "Name": "108",
            "Color": {
                "Red": 217,
                "Green": 217,
                "Blue": 217
            },
            "Text Color": {
                "Red": 152,
                "Green": 152,
                "Blue": 152
            },
            "Locked": false,
            "Label In Part": 0
        },
        {
            "ID": "104",
            "Name": "104",
            "Color": {
                "Red": 188,
                "Green": 128,
                "Blue": 189
            },
            "Text Color": {
                "Red": 132,
                "Green": 90,
                "Blue": 132
            },
            "Locked": false,
            "Label In Part": 0
        },
        {
            "ID": "102",
            "Name": "102",
            "Color": {
                "Red": 204,
                "Green": 235,
                "Blue": 197
            },
            "Text Color": {
                "Red": 143,
                "Green": 164,
                "Blue": 138
            },
            "Locked": false,
            "Label In Part": 0
        },
        {
            "ID": "107",
            "Name": "107",
            "Color": {
                "Red": 255,
                "Green": 237,
                "Blue": 111
            },
            "Text Color": {
                "Red": 178,
                "Green": 166,
                "Blue": 78
            },
            "Locked": false,
            "Label In Part": 0
        },
        {
            "ID": "111",
            "Name": "111",
            "Color": {
                "Red": 141,
                "Green": 211,
                "Blue": 199
            },
            "Text Color": {
                "Red": 99,
                "Green": 148,
                "Blue": 139
            },
            "Locked": false,
            "Label In Part": 0
        },
        {
            "ID": "110",
            "Name": "110",
            "Color": {
                "Red": 255,
                "Green": 255,
                "Blue": 179
            },
            "Text Color": {
                "Red": 178,
                "Green": 178,
                "Blue": 125
            },
            "Locked": false,
            "Label In Part": 0
        },
        {
            "ID": "112",
            "Name": "112",
            "Color": {
                "Red": 190,
                "Green": 186,
                "Blue": 218
            },
            "Text Color": {
                "Red": 133,
                "Green": 130,
                "Blue": 153
            },
            "Locked": false,
            "Label In Part": 0
        },
        {
            "ID": "114",
            "Name": "114",
            "Color": {
                "Red": 251,
                "Green": 128,
                "Blue": 114
            },
            "Text Color": {
                "Red": 176,
                "Green": 90,
                "Blue": 80
            },
            "Locked": false,
            "Label In Part": 0
        },
        {
            "ID": "113",
            "Name": "113",
            "Color": {
                "Red": 128,
                "Green": 177,
                "Blue": 211
            },
            "Text Color": {
                "Red": 90,
                "Green": 124,
                "Blue": 148
            },
            "Locked": false,
            "Label In Part": 0
        },
        {
            "ID": "116",
            "Name": "116",
            "Color": {
                "Red": 253,
                "Green": 180,
                "Blue": 98
            },
            "Text Color": {
                "Red": 177,
                "Green": 126,
                "Blue": 69
            },
            "Locked": false,
            "Label In Part": 0
        },
        {
            "ID": "121",
            "Name": "121",
            "Color": {
                "Red": 179,
                "Green": 222,
                "Blue": 105
            },
            "Text Color": {
                "Red": 125,
                "Green": 155,
                "Blue": 74
            },
            "Locked": false,
            "Label In Part": 0
        },
        {
            "ID": "125",
            "Name": "125",
            "Color": {
                "Red": 252,
                "Green": 205,
                "Blue": 229
            },
            "Text Color": {
                "Red": 176,
                "Green": 144,
                "Blue": 160
            },
            "Locked": false,
            "Label In Part": 0
        },
        {
            "ID": "117",
            "Name": "117",
            "Color": {
                "Red": 217,
                "Green": 217,
                "Blue": 217
            },
            "Text Color": {
                "Red": 152,
                "Green": 152,
                "Blue": 152
            },
            "Locked": false,
            "Label In Part": 0
        },
        {
            "ID": "123",
            "Name": "123",
            "Color": {
                "Red": 188,
                "Green": 128,
                "Blue": 189
            },
            "Text Color": {
                "Red": 132,
                "Green": 90,
                "Blue": 132
            },
            "Locked": false,
            "Label In Part": 0
        },
        {
            "ID": "115",
            "Name": "115",
            "Color": {
                "Red": 204,
                "Green": 235,
                "Blue": 197
            },
            "Text Color": {
                "Red": 143,
                "Green": 164,
                "Blue": 138
            },
            "Locked": false,
            "Label In Part": 0
        },
        {
            "ID": "119",
            "Name": "119",
            "Color": {
                "Red": 255,
                "Green": 237,
                "Blue": 111
            },
            "Text Color": {
                "Red": 178,
                "Green": 166,
                "Blue": 78
            },
            "Locked": false,
            "Label In Part": 0
        },
        {
            "ID": "118",
            "Name": "118",
            "Color": {
                "Red": 141,
                "Green": 211,
                "Blue": 199
            },
            "Text Color": {
                "Red": 99,
                "Green": 148,
                "Blue": 139
            },
            "Locked": false,
            "Label In Part": 0
        },
        {
            "ID": "120",
            "Name": "120",
            "Color": {
                "Red": 255,
                "Green": 255,
                "Blue": 179
            },
            "Text Color": {
                "Red": 178,
                "Green": 178,
                "Blue": 125
            },
            "Locked": false,
            "Label In Part": 0
        },
        {
            "ID": "122",
            "Name": "122",
            "Color": {
                "Red": 190,
                "Green": 186,
                "Blue": 218
            },
            "Text Color": {
                "Red": 133,
                "Green": 130,
                "Blue": 153
            },
            "Locked": false,
            "Label In Part": 0
        },
        {
            "ID": "124",
            "Name": "124",
            "Color": {
                "Red": 251,
                "Green": 128,
                "Blue": 114
            },
            "Text Color": {
                "Red": 176,
                "Green": 90,
                "Blue": 80
            },
            "Locked": false,
            "Label In Part": 0
        },
        {
            "ID": "145",
            "Name": "145",
            "Color": {
                "Red": 128,
                "Green": 177,
                "Blue": 211
            },
            "Text Color": {
                "Red": 90,
                "Green": 124,
                "Blue": 148
            },
            "Locked": false,
            "Label In Part": 0
        },
        {
            "ID": "133",
            "Name": "133",
            "Color": {
                "Red": 253,
                "Green": 180,
                "Blue": 98
            },
            "Text Color": {
                "Red": 177,
                "Green": 126,
                "Blue": 69
            },
            "Locked": false,
            "Label In Part": 0
        },
        {
            "ID": "131",
            "Name": "131",
            "Color": {
                "Red": 179,
                "Green": 222,
                "Blue": 105
            },
            "Text Color": {
                "Red": 125,
                "Green": 155,
                "Blue": 74
            },
            "Locked": false,
            "Label In Part": 0
        },
        {
            "ID": "136",
            "Name": "136",
            "Color": {
                "Red": 252,
                "Green": 205,
                "Blue": 229
            },
            "Text Color": {
                "Red": 176,
                "Green": 144,
                "Blue": 160
            },
            "Locked": false,
            "Label In Part": 0
        },
        {
            "ID": "126",
            "Name": "126",
            "Color": {
                "Red": 217,
                "Green": 217,
                "Blue": 217
            },
            "Text Color": {
                "Red": 152,
                "Green": 152,
                "Blue": 152
            },
            "Locked": false,
            "Label In Part": 0
        },
        {
            "ID": "141",
            "Name": "141",
            "Color": {
                "Red": 188,
                "Green": 128,
                "Blue": 189
            },
            "Text Color": {
                "Red": 132,
                "Green": 90,
                "Blue": 132
            },
            "Locked": false,
            "Label In Part": 0
        },
        {
            "ID": "139",
            "Name": "139",
            "Color": {
                "Red": 204,
                "Green": 235,
                "Blue": 197
            },
            "Text Color": {
                "Red": 143,
                "Green": 164,
                "Blue": 138
            },
            "Locked": false,
            "Label In Part": 0
        },
        {
            "ID": "152",
            "Name": "152",
            "Color": {
                "Red": 255,
                "Green": 237,
                "Blue": 111
            },
            "Text Color": {
                "Red": 178,
                "Green": 166,
                "Blue": 78
            },
            "Locked": false,
            "Label In Part": 0
        },
        {
            "ID": "150",
            "Name": "150",
            "Color": {
                "Red": 141,
                "Green": 211,
                "Blue": 199
            },
            "Text Color": {
                "Red": 99,
                "Green": 148,
                "Blue": 139
            },
            "Locked": false,
            "Label In Part": 0
        },
        {
            "ID": "160",
            "Name": "160",
            "Color": {
                "Red": 255,
                "Green": 255,
                "Blue": 179
            },
            "Text Color": {
                "Red": 178,
                "Green": 178,
                "Blue": 125
            },
            "Locked": false,
            "Label In Part": 0
        },
        {
            "ID": "156",
            "Name": "156",
            "Color": {
                "Red": 190,
                "Green": 186,
                "Blue": 218
            },
            "Text Color": {
                "Red": 133,
                "Green": 130,
                "Blue": 153
            },
            "Locked": false,
            "Label In Part": 0
        },
        {
            "ID": "161",
            "Name": "161",
            "Color": {
                "Red": 251,
                "Green": 128,
                "Blue": 114
            },
            "Text Color": {
                "Red": 176,
                "Green": 90,
                "Blue": 80
            },
            "Locked": false,
            "Label In Part": 0
        },
        {
            "ID": "164",
            "Name": "164",
            "Color": {
                "Red": 128,
                "Green": 177,
                "Blue": 211
            },
            "Text Color": {
                "Red": 90,
                "Green": 124,
                "Blue": 148
            },
            "Locked": false,
            "Label In Part": 0
        },
        {
            "ID": "167",
            "Name": "167",
            "Color": {
                "Red": 253,
                "Green": 180,
                "Blue": 98
            },
            "Text Color": {
                "Red": 177,
                "Green": 126,
                "Blue": 69
            },
            "Locked": false,
            "Label In Part": 0
        },
        {
            "ID": "168",
            "Name": "168",
            "Color": {
                "Red": 179,
                "Green": 222,
                "Blue": 105
            },
            "Text Color": {
                "Red": 125,
                "Green": 155,
                "Blue": 74
            },
            "Locked": false,
            "Label In Part": 0
        },
        {
            "ID": "155",
            "Name": "155",
            "Color": {
                "Red": 252,
                "Green": 205,
                "Blue": 229
            },
            "Text Color": {
                "Red": 176,
                "Green": 144,
                "Blue": 160
            },
            "Locked": false,
            "Label In Part": 0
        },
        {
            "ID": "306",
            "Name": "306",
            "Color": {
                "Red": 217,
                "Green": 217,
                "Blue": 217
            },
            "Text Color": {
                "Red": 152,
                "Green": 152,
                "Blue": 152
            },
            "Locked": false,
            "Label In Part": 0
        },
        {
            "ID": "154",
            "Name": "154",
            "Color": {
                "Red": 188,
                "Green": 128,
                "Blue": 189
            },
            "Text Color": {
                "Red": 132,
                "Green": 90,
                "Blue": 132
            },
            "Locked": false,
            "Label In Part": 0
        },
        {
            "ID": "166",
            "Name": "166",
            "Color": {
                "Red": 204,
                "Green": 235,
                "Blue": 197
            },
            "Text Color": {
                "Red": 143,
                "Green": 164,
                "Blue": 138
            },
            "Locked": false,
            "Label In Part": 0
        },
        {
            "ID": "170",
            "Name": "170",
            "Color": {
                "Red": 255,
                "Green": 237,
                "Blue": 111
            },
            "Text Color": {
                "Red": 178,
                "Green": 166,
                "Blue": 78
            },
            "Locked": false,
            "Label In Part": 0
        },
        {
            "ID": "305",
            "Name": "305",
            "Color": {
                "Red": 141,
                "Green": 211,
                "Blue": 199
            },
            "Text Color": {
                "Red": 99,
                "Green": 148,
                "Blue": 139
            },
            "Locked": false,
            "Label In Part": 0
        },
        {
            "ID": "137",
            "Name": "137",
            "Color": {
                "Red": 255,
                "Green": 255,
                "Blue": 179
            },
            "Text Color": {
                "Red": 178,
                "Green": 178,
                "Blue": 125
            },
            "Locked": false,
            "Label In Part": 0
        },
        {
            "ID": "307",
            "Name": "307",
            "Color": {
                "Red": 190,
                "Green": 186,
                "Blue": 218
            },
            "Text Color": {
                "Red": 133,
                "Green": 130,
                "Blue": 153
            },
            "Locked": false,
            "Label In Part": 0
        },
        {
            "ID": "134",
            "Name": "134",
            "Color": {
                "Red": 251,
                "Green": 128,
                "Blue": 114
            },
            "Text Color": {
                "Red": 176,
                "Green": 90,
                "Blue": 80
            },
            "Locked": false,
            "Label In Part": 0
        },
        {
            "ID": "130",
            "Name": "130",
            "Color": {
                "Red": 128,
                "Green": 177,
                "Blue": 211
            },
            "Text Color": {
                "Red": 90,
                "Green": 124,
                "Blue": 148
            },
            "Locked": false,
            "Label In Part": 0
        },
        {
            "ID": "138",
            "Name": "138",
            "Color": {
                "Red": 253,
                "Green": 180,
                "Blue": 98
            },
            "Text Color": {
                "Red": 177,
                "Green": 126,
                "Blue": 69
            },
            "Locked": false,
            "Label In Part": 0
        },
        {
            "ID": "135",
            "Name": "135",
            "Color": {
                "Red": 179,
                "Green": 222,
                "Blue": 105
            },
            "Text Color": {
                "Red": 125,
                "Green": 155,
                "Blue": 74
            },
            "Locked": false,
            "Label In Part": 0
        },
        {
            "ID": "128",
            "Name": "128",
            "Color": {
                "Red": 252,
                "Green": 205,
                "Blue": 229
            },
            "Text Color": {
                "Red": 176,
                "Green": 144,
                "Blue": 160
            },
            "Locked": false,
            "Label In Part": 0
        },
        {
            "ID": "127",
            "Name": "127",
            "Color": {
                "Red": 217,
                "Green": 217,
                "Blue": 217
            },
            "Text Color": {
                "Red": 152,
                "Green": 152,
                "Blue": 152
            },
            "Locked": false,
            "Label In Part": 0
        },
        {
            "ID": "132",
            "Name": "132",
            "Color": {
                "Red": 188,
                "Green": 128,
                "Blue": 189
            },
            "Text Color": {
                "Red": 132,
                "Green": 90,
                "Blue": 132
            },
            "Locked": false,
            "Label In Part": 0
        },
        {
            "ID": "143",
            "Name": "143",
            "Color": {
                "Red": 204,
                "Green": 235,
                "Blue": 197
            },
            "Text Color": {
                "Red": 143,
                "Green": 164,
                "Blue": 138
            },
            "Locked": false,
            "Label In Part": 0
        },
        {
            "ID": "162",
            "Name": "162",
            "Color": {
                "Red": 255,
                "Green": 237,
                "Blue": 111
            },
            "Text Color": {
                "Red": 178,
                "Green": 166,
                "Blue": 78
            },
            "Locked": false,
            "Label In Part": 0
        },
        {
            "ID": "303",
            "Name": "303",
            "Color": {
                "Red": 141,
                "Green": 211,
                "Blue": 199
            },
            "Text Color": {
                "Red": 99,
                "Green": 148,
                "Blue": 139
            },
            "Locked": false,
            "Label In Part": 0
        },
        {
            "ID": "302",
            "Name": "302",
            "Color": {
                "Red": 255,
                "Green": 255,
                "Blue": 179
            },
            "Text Color": {
                "Red": 178,
                "Green": 178,
                "Blue": 125
            },
            "Locked": false,
            "Label In Part": 0
        },
        {
            "ID": "142",
            "Name": "142",
            "Color": {
                "Red": 190,
                "Green": 186,
                "Blue": 218
            },
            "Text Color": {
                "Red": 133,
                "Green": 130,
                "Blue": 153
            },
            "Locked": false,
            "Label In Part": 0
        },
        {
            "ID": "140",
            "Name": "140",
            "Color": {
                "Red": 251,
                "Green": 128,
                "Blue": 114
            },
            "Text Color": {
                "Red": 176,
                "Green": 90,
                "Blue": 80
            },
            "Locked": false,
            "Label In Part": 0
        },
        {
            "ID": "157",
            "Name": "157",
            "Color": {
                "Red": 128,
                "Green": 177,
                "Blue": 211
            },
            "Text Color": {
                "Red": 90,
                "Green": 124,
                "Blue": 148
            },
            "Locked": false,
            "Label In Part": 0
        },
        {
            "ID": "159",
            "Name": "159",
            "Color": {
                "Red": 253,
                "Green": 180,
                "Blue": 98
            },
            "Text Color": {
                "Red": 177,
                "Green": 126,
                "Blue": 69
            },
            "Locked": false,
            "Label In Part": 0
        },
        {
            "ID": "204",
            "Name": "204",
            "Color": {
                "Red": 179,
                "Green": 222,
                "Blue": 105
            },
            "Text Color": {
                "Red": 125,
                "Green": 155,
                "Blue": 74
            },
            "Locked": false,
            "Label In Part": 0
        },
        {
            "ID": "146",
            "Name": "146",
            "Color": {
                "Red": 252,
                "Green": 205,
                "Blue": 229
            },
            "Text Color": {
                "Red": 176,
                "Green": 144,
                "Blue": 160
            },
            "Locked": false,
            "Label In Part": 0
        },
        {
            "ID": "144",
            "Name": "144",
            "Color": {
                "Red": 217,
                "Green": 217,
                "Blue": 217
            },
            "Text Color": {
                "Red": 152,
                "Green": 152,
                "Blue": 152
            },
            "Locked": false,
            "Label In Part": 0
        },
        {
            "ID": "153",
            "Name": "153",
            "Color": {
                "Red": 188,
                "Green": 128,
                "Blue": 189
            },
            "Text Color": {
                "Red": 132,
                "Green": 90,
                "Blue": 132
            },
            "Locked": false,
            "Label In Part": 0
        },
        {
            "ID": "158",
            "Name": "158",
            "Color": {
                "Red": 204,
                "Green": 235,
                "Blue": 197
            },
            "Text Color": {
                "Red": 143,
                "Green": 164,
                "Blue": 138
            },
            "Locked": false,
            "Label In Part": 0
        },
        {
            "ID": "165",
            "Name": "165",
            "Color": {
                "Red": 251,
                "Green": 128,
                "Blue": 114
            },
            "Text Color": {
                "Red": 176,
                "Green": 90,
                "Blue": 80
            },
            "Locked": false,
            "Label In Part": 0
        },
        {
            "ID": "308",
            "Name": "308",
            "Color": {
                "Red": 141,
                "Green": 211,
                "Blue": 199
            },
            "Text Color": {
                "Red": 99,
                "Green": 148,
                "Blue": 139
            },
            "Locked": false,
            "Label In Part": 0
        },
        {
            "ID": "301",
            "Name": "301",
            "Color": {
                "Red": 255,
                "Green": 255,
                "Blue": 179
            },
            "Text Color": {
                "Red": 178,
                "Green": 178,
                "Blue": 125
            },
            "Locked": false,
            "Label In Part": 0
        },
        {
            "ID": "201",
            "Name": "201",
            "Color": {
                "Red": 190,
                "Green": 186,
                "Blue": 218
            },
            "Text Color": {
                "Red": 133,
                "Green": 130,
                "Blue": 153
            },
            "Locked": false,
            "Label In Part": 0
        },
        {
            "ID": "163",
            "Name": "163",
            "Color": {
                "Red": 251,
                "Green": 128,
                "Blue": 114
            },
            "Text Color": {
                "Red": 176,
                "Green": 90,
                "Blue": 80
            },
            "Locked": false,
            "Label In Part": 0
        },
        {
            "ID": "171",
            "Name": "171",
            "Color": {
                "Red": 128,
                "Green": 177,
                "Blue": 211
            },
            "Text Color": {
                "Red": 90,
                "Green": 124,
                "Blue": 148
            },
            "Locked": false,
            "Label In Part": 0
        },
        {
            "ID": "176",
            "Name": "176",
            "Color": {
                "Red": 253,
                "Green": 180,
                "Blue": 98
            },
            "Text Color": {
                "Red": 177,
                "Green": 126,
                "Blue": 69
            },
            "Locked": false,
            "Label In Part": 0
        },
        {
            "ID": "304",
            "Name": "304",
            "Color": {
                "Red": 179,
                "Green": 222,
                "Blue": 105
            },
            "Text Color": {
                "Red": 125,
                "Green": 155,
                "Blue": 74
            },
            "Locked": false,
            "Label In Part": 0
        },
        {
            "ID": "172",
            "Name": "172",
            "Color": {
                "Red": 252,
                "Green": 205,
                "Blue": 229
            },
            "Text Color": {
                "Red": 176,
                "Green": 144,
                "Blue": 160
            },
            "Locked": false,
            "Label In Part": 0
        },
        {
            "ID": "173",
            "Name": "173",
            "Color": {
                "Red": 217,
                "Green": 217,
                "Blue": 217
            },
            "Text Color": {
                "Red": 152,
                "Green": 152,
                "Blue": 152
            },
            "Locked": false,
            "Label In Part": 0
        },
        {
            "ID": "175",
            "Name": "175",
            "Color": {
                "Red": 188,
                "Green": 128,
                "Blue": 189
            },
            "Text Color": {
                "Red": 132,
                "Green": 90,
                "Blue": 132
            },
            "Locked": false,
            "Label In Part": 0
        },
        {
            "ID": "174",
            "Name": "174",
            "Color": {
                "Red": 204,
                "Green": 235,
                "Blue": 197
            },
            "Text Color": {
                "Red": 143,
                "Green": 164,
                "Blue": 138
            },
            "Locked": false,
            "Label In Part": 0
        },
        {
            "ID": "179",
            "Name": "179",
            "Color": {
                "Red": 255,
                "Green": 237,
                "Blue": 111
            },
            "Text Color": {
                "Red": 178,
                "Green": 166,
                "Blue": 78
            },
            "Locked": false,
            "Label In Part": 0
        },
        {
            "ID": "202",
            "Name": "202",
            "Color": {
                "Red": 141,
                "Green": 211,
                "Blue": 199
            },
            "Text Color": {
                "Red": 99,
                "Green": 148,
                "Blue": 139
            },
            "Locked": false,
            "Label In Part": 0
        },
        {
            "ID": "177",
            "Name": "177",
            "Color": {
                "Red": 255,
                "Green": 255,
                "Blue": 179
            },
            "Text Color": {
                "Red": 178,
                "Green": 178,
                "Blue": 125
            },
            "Locked": false,
            "Label In Part": 0
        },
        {
            "ID": "181",
            "Name": "181",
            "Color": {
                "Red": 251,
                "Green": 128,
                "Blue": 114
            },
            "Text Color": {
                "Red": 176,
                "Green": 90,
                "Blue": 80
            },
            "Locked": false,
            "Label In Part": 0
        },
        {
            "ID": "183",
            "Name": "183",
            "Color": {
                "Red": 128,
                "Green": 177,
                "Blue": 211
            },
            "Text Color": {
                "Red": 90,
                "Green": 124,
                "Blue": 148
            },
            "Locked": false,
            "Label In Part": 0
        },
        {
            "ID": "182",
            "Name": "182",
            "Color": {
                "Red": 253,
                "Green": 180,
                "Blue": 98
            },
            "Text Color": {
                "Red": 177,
                "Green": 126,
                "Blue": 69
            },
            "Locked": false,
            "Label In Part": 0
        },
        {
            "ID": "197",
            "Name": "197",
            "Color": {
                "Red": 179,
                "Green": 222,
                "Blue": 105
            },
            "Text Color": {
                "Red": 125,
                "Green": 155,
                "Blue": 74
            },
            "Locked": false,
            "Label In Part": 0
        },
        {
            "ID": "188",
            "Name": "188",
            "Color": {
                "Red": 252,
                "Green": 205,
                "Blue": 229
            },
            "Text Color": {
                "Red": 176,
                "Green": 144,
                "Blue": 160
            },
            "Locked": false,
            "Label In Part": 0
        },
        {
            "ID": "194",
            "Name": "194",
            "Color": {
                "Red": 217,
                "Green": 217,
                "Blue": 217
            },
            "Text Color": {
                "Red": 152,
                "Green": 152,
                "Blue": 152
            },
            "Locked": false,
            "Label In Part": 0
        },
        {
            "ID": "200",
            "Name": "200",
            "Color": {
                "Red": 188,
                "Green": 128,
                "Blue": 189
            },
            "Text Color": {
                "Red": 132,
                "Green": 90,
                "Blue": 132
            },
            "Locked": false,
            "Label In Part": 0
        },
        {
            "ID": "193",
            "Name": "193",
            "Color": {
                "Red": 204,
                "Green": 235,
                "Blue": 197
            },
            "Text Color": {
                "Red": 143,
                "Green": 164,
                "Blue": 138
            },
            "Locked": false,
            "Label In Part": 0
        },
        {
            "ID": "189",
            "Name": "189",
            "Color": {
                "Red": 255,
                "Green": 237,
                "Blue": 111
            },
            "Text Color": {
                "Red": 178,
                "Green": 166,
                "Blue": 78
            },
            "Locked": false,
            "Label In Part": 0
        },
        {
            "ID": "190",
            "Name": "190",
            "Color": {
                "Red": 141,
                "Green": 211,
                "Blue": 199
            },
            "Text Color": {
                "Red": 99,
                "Green": 148,
                "Blue": 139
            },
            "Locked": false,
            "Label In Part": 0
        },
        {
            "ID": "196",
            "Name": "196",
            "Color": {
                "Red": 255,
                "Green": 255,
                "Blue": 179
            },
            "Text Color": {
                "Red": 178,
                "Green": 178,
                "Blue": 125
            },
            "Locked": false,
            "Label In Part": 0
        },
        {
            "ID": "199",
            "Name": "199",
            "Color": {
                "Red": 190,
                "Green": 186,
                "Blue": 218
            },
            "Text Color": {
                "Red": 133,
                "Green": 130,
                "Blue": 153
            },
            "Locked": false,
            "Label In Part": 0
        },
        {
            "ID": "198",
            "Name": "198",
            "Color": {
                "Red": 251,
                "Green": 128,
                "Blue": 114
            },
            "Text Color": {
                "Red": 176,
                "Green": 90,
                "Blue": 80
            },
            "Locked": false,
            "Label In Part": 0
        },
        {
            "ID": "184",
            "Name": "184",
            "Color": {
                "Red": 128,
                "Green": 177,
                "Blue": 211
            },
            "Text Color": {
                "Red": 90,
                "Green": 124,
                "Blue": 148
            },
            "Locked": false,
            "Label In Part": 0
        },
        {
            "ID": "186",
            "Name": "186",
            "Color": {
                "Red": 253,
                "Green": 180,
                "Blue": 98
            },
            "Text Color": {
                "Red": 177,
                "Green": 126,
                "Blue": 69
            },
            "Locked": false,
            "Label In Part": 0
        }
    ]
}